<?xml version="1.0" encoding="UTF-8" standalone="no"?>
<svg
   xmlns:dc="http://purl.org/dc/elements/1.1/"
   xmlns:cc="http://creativecommons.org/ns#"
   xmlns:rdf="http://www.w3.org/1999/02/22-rdf-syntax-ns#"
   xmlns:svg="http://www.w3.org/2000/svg"
   xmlns="http://www.w3.org/2000/svg"
   xmlns:sodipodi="http://sodipodi.sourceforge.net/DTD/sodipodi-0.dtd"
   xmlns:inkscape="http://www.inkscape.org/namespaces/inkscape"
   width="1920"
   height="1080"
   viewBox="0 0 1920 1080"
   version="1.1"
   id="svg8"
   inkscape:version="1.0.1 (3bc2e813f5, 2020-09-07)"
   sodipodi:docname="archlinux-ph.svg">
  <title
     id="title846">archlinux-ph</title>
  <defs
     id="defs2" />
  <sodipodi:namedview
     id="base"
     pagecolor="#1b1b1b"
     bordercolor="#666666"
     borderopacity="1.0"
     inkscape:pageopacity="0"
     inkscape:pageshadow="2"
     inkscape:zoom="0.35"
     inkscape:cx="1540.5008"
     inkscape:cy="831.68995"
     inkscape:document-units="px"
     inkscape:current-layer="layer1"
     inkscape:document-rotation="0"
     showgrid="true"
     units="px"
     objecttolerance="10000"
     borderlayer="true"
     inkscape:window-width="2192"
     inkscape:window-height="1169"
     inkscape:window-x="0"
     inkscape:window-y="0"
     inkscape:window-maximized="1">
    <inkscape:grid
       type="xygrid"
       id="grid833"
       empspacing="4" />
  </sodipodi:namedview>
  <metadata
     id="metadata5">
    <rdf:RDF>
      <cc:Work
         rdf:about="">
        <dc:format>image/svg+xml</dc:format>
        <dc:type
           rdf:resource="http://purl.org/dc/dcmitype/StillImage" />
        <dc:title>archlinux-ph</dc:title>
        <cc:license
           rdf:resource="https://creativecommons.org/licenses/by-nc-sa/4.0/" />
        <dc:date>2020</dc:date>
        <dc:creator>
          <cc:Agent>
            <dc:title>Fabian Bornschein</dc:title>
          </cc:Agent>
        </dc:creator>
        <dc:publisher>
          <cc:Agent>
            <dc:title>Fabian Bornschein</dc:title>
          </cc:Agent>
        </dc:publisher>
      </cc:Work>
    </rdf:RDF>
  </metadata>
  <g
     inkscape:label="Ebene 1"
     inkscape:groupmode="layer"
     id="layer1">
    <rect
       style="fill:#1b1b1b;fill-opacity:1;stroke-width:15.2128"
       id="rect869"
       width="1920"
       height="1080"
       x="0"
       y="0"
       ry="0" />
    <g
       id="g867"
       transform="matrix(3.7795276,0,0,3.7795276,32.000194,27.999964)">
      <rect
         style="fill:#1b1b1b;fill-opacity:1;stroke-width:0.290602"
         id="rect859"
         width="160.86667"
         height="67.733353"
         x="84.666565"
         y="101.6"
         ry="4.838089" />
      <rect
         style="fill:#f8981c;fill-opacity:1;stroke-width:0.290602"
         id="rect835"
         width="160.86667"
         height="67.733353"
         x="245.53333"
         y="101.6"
         ry="4.838089" />
      <g
         aria-label="Linux"
         id="text853"
         style="font-style:normal;font-variant:normal;font-weight:bold;font-stretch:normal;font-size:56.4444px;line-height:1.25;font-family:sans-serif;-inkscape-font-specification:'sans-serif Bold';fill:#1b1b1b;fill-opacity:1;stroke:none;stroke-width:0.264583">
        <path
           d="m 253.61537,156.32343 v -40.07332 h 8.15798 v 33.26581 h 20.2847 v 6.80751 z"
           style="font-style:normal;font-variant:normal;font-weight:bold;font-stretch:normal;font-size:56.4444px;font-family:Arial;-inkscape-font-specification:'Arial Bold';fill:#1b1b1b;fill-opacity:1;stroke-width:0.264583"
           id="path848" />
        <path
           d="m 287.81825,123.08517 v -7.16579 h 7.74457 v 7.16579 z m 0,33.23826 v -29.26951 h 7.74457 v 29.26951 z"
           style="font-style:normal;font-variant:normal;font-weight:bold;font-stretch:normal;font-size:56.4444px;font-family:Arial;-inkscape-font-specification:'Arial Bold';fill:#1b1b1b;fill-opacity:1;stroke-width:0.264583"
           id="path850" />
        <path
           d="m 330.12399,156.32343 h -7.74457 V 141.3855 q 0,-4.74044 -0.49609,-6.11848 -0.4961,-1.4056 -1.62609,-2.1773 -1.10243,-0.7717 -2.67339,-0.7717 -2.01193,0 -3.61046,1.10243 -1.59852,1.10243 -2.20486,2.92144 -0.57877,1.81901 -0.57877,6.72482 v 13.25672 h -7.74457 v -29.26951 h 7.19335 v 4.29947 q 3.83095,-4.96093 9.64626,-4.96093 2.56315,0 4.68533,0.93706 2.12218,0.90951 3.19705,2.34267 1.10243,1.43316 1.51584,3.25216 0.44097,1.81901 0.44097,5.20899 z"
           style="font-style:normal;font-variant:normal;font-weight:bold;font-stretch:normal;font-size:56.4444px;font-family:Arial;-inkscape-font-specification:'Arial Bold';fill:#1b1b1b;fill-opacity:1;stroke-width:0.264583"
           id="path852" />
        <path
           d="m 357.24376,156.32343 v -4.38216 q -1.59853,2.34266 -4.2168,3.69314 -2.59071,1.35047 -5.48459,1.35047 -2.94899,0 -5.29166,-1.29535 -2.34266,-1.29536 -3.38997,-3.63802 -1.04731,-2.34266 -1.04731,-6.47677 v -18.52082 h 7.74457 v 13.44964 q 0,6.17361 0.41341,7.5792 0.44097,1.37804 1.57096,2.20486 1.13,0.79926 2.86632,0.79926 1.98438,0 3.55534,-1.07486 1.57096,-1.10243 2.14974,-2.70096 0.57877,-1.62608 0.57877,-7.90993 v -12.34721 h 7.74457 v 29.26951 z"
           style="font-style:normal;font-variant:normal;font-weight:bold;font-stretch:normal;font-size:56.4444px;font-family:Arial;-inkscape-font-specification:'Arial Bold';fill:#1b1b1b;fill-opacity:1;stroke-width:0.264583"
           id="path854" />
        <path
           d="m 368.73659,156.32343 10.55576,-15.07573 -10.11479,-14.19378 h 9.45334 l 5.18142,8.04773 5.45702,-8.04773 h 9.09505 l -9.92187,13.86305 10.83137,15.40646 h -9.50845 l -5.95312,-9.06749 -6.00825,9.06749 z"
           style="font-style:normal;font-variant:normal;font-weight:bold;font-stretch:normal;font-size:56.4444px;font-family:Arial;-inkscape-font-specification:'Arial Bold';fill:#1b1b1b;fill-opacity:1;stroke-width:0.264583"
           id="path856" />
      </g>
      <g
         aria-label="Arch"
         id="text857"
         style="font-style:normal;font-variant:normal;font-weight:bold;font-stretch:normal;font-size:56.4444px;line-height:1.25;font-family:sans-serif;-inkscape-font-specification:'sans-serif Bold';fill:#ffffff;fill-opacity:1;stroke:none;stroke-width:0.264583">
        <path
           d="m 152.24675,156.32343 h -8.87455 l -3.52778,-9.17773 h -16.15059 l -3.33485,9.17773 h -8.65408 l 15.73719,-40.40405 h 8.62651 z m -15.0206,-15.98524 -5.56727,-14.99304 -5.45703,14.99304 z"
           style="font-style:normal;font-variant:normal;font-weight:bold;font-stretch:normal;font-size:56.4444px;font-family:Arial;-inkscape-font-specification:'Arial Bold';fill:#ffffff;fill-opacity:1;stroke-width:0.264583"
           id="path839" />
        <path
           d="m 163.93251,156.32343 h -7.74457 v -29.26951 h 7.19335 v 4.16167 q 1.84657,-2.949 3.30729,-3.88607 1.48828,-0.93706 3.36241,-0.93706 2.64583,0 5.09874,1.46072 l -2.39778,6.75238 q -1.95682,-1.26779 -3.63802,-1.26779 -1.62609,0 -2.75608,0.9095 -1.12999,0.88194 -1.79144,3.22461 -0.6339,2.34266 -0.6339,9.81162 z"
           style="font-style:normal;font-variant:normal;font-weight:bold;font-stretch:normal;font-size:56.4444px;font-family:Arial;-inkscape-font-specification:'Arial Bold';fill:#ffffff;fill-opacity:1;stroke-width:0.264583"
           id="path841" />
        <path
           d="m 204.00583,135.70799 -7.63433,1.37804 q -0.38585,-2.28754 -1.76389,-3.4451 -1.35047,-1.15755 -3.52777,-1.15755 -2.89388,0 -4.6302,2.01194 -1.70877,1.98437 -1.70877,6.6697 0,5.20898 1.73633,7.35872 1.76388,2.14973 4.71288,2.14973 2.20486,0 3.61046,-1.24023 1.4056,-1.26779 1.98437,-4.32704 l 7.60677,1.29536 q -1.18511,5.23654 -4.54752,7.90993 -3.36241,2.67339 -9.01237,2.67339 -6.42165,0 -10.25259,-4.05143 -3.80339,-4.05143 -3.80339,-11.21722 0,-7.24847 3.83095,-11.27234 3.83094,-4.05143 10.36284,-4.05143 5.34678,0 8.48871,2.3151 3.16948,2.28754 4.54752,7.00043 z"
           style="font-style:normal;font-variant:normal;font-weight:bold;font-stretch:normal;font-size:56.4444px;font-family:Arial;-inkscape-font-specification:'Arial Bold';fill:#ffffff;fill-opacity:1;stroke-width:0.264583"
           id="path843" />
        <path
           d="m 217.59327,115.91938 v 14.85524 q 3.74826,-4.38216 8.95725,-4.38216 2.67339,0 4.82313,0.99219 2.14973,0.99218 3.2246,2.53558 1.10243,1.54341 1.48828,3.41754 0.41341,1.87413 0.41341,5.81531 v 17.17035 h -7.74457 v -15.46158 q 0,-4.60265 -0.44097,-5.84288 -0.44097,-1.24023 -1.57096,-1.95681 -1.10243,-0.74414 -2.78363,-0.74414 -1.92926,0 -3.4451,0.93706 -1.51584,0.93707 -2.23242,2.83876 -0.68902,1.87413 -0.68902,5.56727 v 14.66232 h -7.74456 v -40.40405 z"
           style="font-style:normal;font-variant:normal;font-weight:bold;font-stretch:normal;font-size:56.4444px;font-family:Arial;-inkscape-font-specification:'Arial Bold';fill:#ffffff;fill-opacity:1;stroke-width:0.264583"
           id="path845" />
      </g>
    </g>
  </g>
</svg>
